<?xml version="1.0" encoding="UTF-8" standalone="no"?>
<!-- Created with Inkscape (http://www.inkscape.org/) -->

<svg
   width="320"
   height="192"
   viewBox="0 0 84.666665 50.8"
   version="1.1"
   id="svg19688"
   xml:space="preserve"
   sodipodi:docname="bgmmode.svg"
   inkscape:version="1.2.2 (b0a8486541, 2022-12-01)"
   inkscape:export-filename="bgmmode.png"
   inkscape:export-xdpi="96"
   inkscape:export-ydpi="96"
   xmlns:inkscape="http://www.inkscape.org/namespaces/inkscape"
   xmlns:sodipodi="http://sodipodi.sourceforge.net/DTD/sodipodi-0.dtd"
   xmlns="http://www.w3.org/2000/svg"
   xmlns:svg="http://www.w3.org/2000/svg"><sodipodi:namedview
     id="namedview19690"
     pagecolor="#ffffff"
     bordercolor="#666666"
     borderopacity="1.0"
     inkscape:showpageshadow="2"
     inkscape:pageopacity="0.0"
     inkscape:pagecheckerboard="0"
     inkscape:deskcolor="#d1d1d1"
     inkscape:document-units="px"
     showgrid="true"
     inkscape:zoom="2.587745"
     inkscape:cx="149.93749"
     inkscape:cy="119.02255"
     inkscape:window-width="2514"
     inkscape:window-height="1409"
     inkscape:window-x="46"
     inkscape:window-y="0"
     inkscape:window-maximized="1"
     inkscape:current-layer="layer1"><inkscape:grid
       type="xygrid"
       id="grid19821"
       empspacing="1"
       spacingx="84.666666"
       spacingy="12.7"
       originx="1.3229167"
       originy="9.525" /></sodipodi:namedview><defs
     id="defs19685" /><g
     inkscape:label="Layer 1"
     inkscape:groupmode="layer"
     id="layer1"><text
       xml:space="preserve"
       style="font-weight:500;font-size:8.46667px;line-height:1.25;font-family:Figtree;-inkscape-font-specification:'Figtree Medium';fill:#ffffff;fill-opacity:1;stroke:#040404;stroke-width:1.32292;stroke-linejoin:round;stroke-dasharray:none;stroke-opacity:0.701961;paint-order:stroke fill markers"
       x="1.3229167"
       y="9.5249996"
       id="text19825"><tspan
         sodipodi:role="line"
         id="tspan19823"
         style="font-size:8.46667px;fill:#ffffff;fill-opacity:1;stroke:#040404;stroke-width:1.32292;stroke-linejoin:round;stroke-dasharray:none;stroke-opacity:0.701961;paint-order:stroke fill markers"
         x="1.3229167"
         y="9.5249996">Move cursor</tspan></text><text
       xml:space="preserve"
       style="font-weight:500;font-size:8.46667px;line-height:1.25;font-family:Figtree;-inkscape-font-specification:'Figtree Medium';fill:#ffffff;fill-opacity:1;stroke:#040404;stroke-width:1.32292;stroke-linejoin:round;stroke-dasharray:none;stroke-opacity:0.701961;paint-order:stroke fill markers"
       x="1.3229167"
       y="22.1234"
       id="text19829"><tspan
         sodipodi:role="line"
         id="tspan19827"
         style="font-size:8.46667px;fill:#ffffff;fill-opacity:1;stroke:#040404;stroke-width:1.32292;stroke-linejoin:round;stroke-dasharray:none;stroke-opacity:0.701961;paint-order:stroke fill markers"
         x="1.3229167"
         y="22.1234">Back</tspan></text><text
       xml:space="preserve"
       style="font-weight:500;font-size:8.46667px;line-height:1.25;font-family:Figtree;-inkscape-font-specification:'Figtree Medium';fill:#ffffff;fill-opacity:1;stroke:#040404;stroke-width:1.32292;stroke-linejoin:round;stroke-dasharray:none;stroke-opacity:0.701961;paint-order:stroke fill markers"
       x="1.3229167"
       y="34.823399"
       id="text19833"><tspan
         sodipodi:role="line"
         id="tspan19831"
         style="font-size:8.46667px;fill:#ffffff;fill-opacity:1;stroke:#040404;stroke-width:1.32292;stroke-linejoin:round;stroke-dasharray:none;stroke-opacity:0.701961;paint-order:stroke fill markers"
         x="1.3229167"
         y="34.823399">Play</tspan></text><text
       xml:space="preserve"
       style="font-weight:500;font-size:8.46667px;line-height:1.25;font-family:Figtree;-inkscape-font-specification:'Figtree Medium';fill:#ffffff;fill-opacity:1;stroke:#040404;stroke-width:1.32292;stroke-linejoin:round;stroke-dasharray:none;stroke-opacity:0.701961;paint-order:stroke fill markers"
       x="1.3229167"
       y="47.625"
       id="text19837"><tspan
         sodipodi:role="line"
         id="tspan19835"
         style="font-size:8.46667px;fill:#ffffff;fill-opacity:1;stroke:#040404;stroke-width:1.32292;stroke-linejoin:round;stroke-dasharray:none;stroke-opacity:0.701961;paint-order:stroke fill markers"
         x="1.3229167"
         y="47.625">Stop</tspan></text></g></svg>
