<?xml version="1.0" encoding="UTF-8" standalone="no"?>
<!-- Created with Inkscape (http://www.inkscape.org/) -->

<svg
   width="1920"
   height="1080"
   viewBox="0 0 507.99999 285.75"
   version="1.1"
   id="svg5"
   xml:space="preserve"
   inkscape:version="1.2.2 (b0a8486541, 2022-12-01)"
   sodipodi:docname="text.svg"
   inkscape:export-filename="text.png"
   inkscape:export-xdpi="96"
   inkscape:export-ydpi="96"
   xmlns:inkscape="http://www.inkscape.org/namespaces/inkscape"
   xmlns:sodipodi="http://sodipodi.sourceforge.net/DTD/sodipodi-0.dtd"
   xmlns="http://www.w3.org/2000/svg"
   xmlns:svg="http://www.w3.org/2000/svg"><sodipodi:namedview
     id="namedview7"
     pagecolor="#ffffff"
     bordercolor="#666666"
     borderopacity="1.0"
     inkscape:showpageshadow="2"
     inkscape:pageopacity="0.0"
     inkscape:pagecheckerboard="0"
     inkscape:deskcolor="#d1d1d1"
     inkscape:document-units="mm"
     showgrid="false"
     inkscape:zoom="0.64693624"
     inkscape:cx="568.83504"
     inkscape:cy="520.91687"
     inkscape:window-width="2514"
     inkscape:window-height="1409"
     inkscape:window-x="46"
     inkscape:window-y="0"
     inkscape:window-maximized="1"
     inkscape:current-layer="layer1" /><defs
     id="defs2" /><g
     inkscape:label="Layer 1"
     inkscape:groupmode="layer"
     id="layer1"><text
       xml:space="preserve"
       style="font-weight:bold;font-size:14.1111px;line-height:1.25;font-family:Fredoka;-inkscape-font-specification:'Fredoka Bold';fill:#ff0000;fill-opacity:1;stroke:#000000;stroke-width:2.665;stroke-linejoin:round;stroke-dasharray:none;stroke-opacity:1;paint-order:stroke fill markers"
       x="229.84166"
       y="219.62173"
       id="text1688"><tspan
         sodipodi:role="line"
         id="tspan1686"
         style="font-style:normal;font-variant:normal;font-weight:500;font-stretch:normal;font-size:14.1111px;font-family:Fredoka;-inkscape-font-specification:'Fredoka Medium';fill:#ff0000;fill-opacity:1;stroke:#000000;stroke-width:2.665;stroke-linejoin:round;stroke-dasharray:none;stroke-opacity:1;paint-order:stroke fill markers"
         x="229.84166"
         y="219.62173">&lt;Warning&gt;</tspan></text><text
       xml:space="preserve"
       style="font-weight:bold;font-size:8.46667px;line-height:1.25;font-family:Fredoka;-inkscape-font-specification:'Fredoka Bold';fill:#ffffff;fill-opacity:1;stroke:#000000;stroke-width:2.265;stroke-linejoin:round;stroke-dasharray:none;stroke-opacity:1;paint-order:stroke fill markers"
       x="264.09238"
       y="238.84375"
       id="text2472"><tspan
         sodipodi:role="line"
         id="tspan2470"
         style="font-style:normal;font-variant:normal;font-weight:500;font-stretch:normal;font-size:8.46667px;font-family:Fredoka;-inkscape-font-specification:'Fredoka Medium';text-align:center;text-anchor:middle;fill:#ffffff;fill-opacity:1;stroke:#000000;stroke-width:2.265;stroke-linejoin:round;stroke-dasharray:none;stroke-opacity:1;paint-order:stroke fill markers"
         x="264.09238"
         y="238.84375">Uploading and distributing this game software via the internet</tspan><tspan
         sodipodi:role="line"
         style="font-style:normal;font-variant:normal;font-weight:500;font-stretch:normal;font-size:8.46667px;font-family:Fredoka;-inkscape-font-specification:'Fredoka Medium';text-align:center;text-anchor:middle;fill:#ffffff;fill-opacity:1;stroke:#000000;stroke-width:2.265;stroke-linejoin:round;stroke-dasharray:none;stroke-opacity:1;paint-order:stroke fill markers"
         x="264.09238"
         y="249.42709"
         id="tspan2474">without the permission of the copyright holder,</tspan><tspan
         sodipodi:role="line"
         style="font-style:normal;font-variant:normal;font-weight:500;font-stretch:normal;font-size:8.46667px;font-family:Fredoka;-inkscape-font-specification:'Fredoka Medium';text-align:center;text-anchor:middle;fill:#ffffff;fill-opacity:1;stroke:#000000;stroke-width:2.265;stroke-linejoin:round;stroke-dasharray:none;stroke-opacity:1;paint-order:stroke fill markers"
         x="264.09238"
         y="260.01044"
         id="tspan2476">as well as knowingly illegally downloading it from the internet, are strictly prohibited by law.</tspan><tspan
         sodipodi:role="line"
         style="font-style:normal;font-variant:normal;font-weight:500;font-stretch:normal;font-size:8.46667px;font-family:Fredoka;-inkscape-font-specification:'Fredoka Medium';text-align:center;text-anchor:middle;fill:#ffffff;fill-opacity:1;stroke:#000000;stroke-width:2.265;stroke-linejoin:round;stroke-dasharray:none;stroke-opacity:1;paint-order:stroke fill markers"
         x="264.09238"
         y="270.59375"
         id="tspan2478">We humbly ask your understanding and cooperation.</tspan></text></g></svg>
