<?xml version="1.0" encoding="UTF-8" standalone="no"?>
<!-- Created with Inkscape (http://www.inkscape.org/) -->

<svg
   width="752"
   height="1440"
   viewBox="0 0 198.96666 381"
   version="1.1"
   id="svg2588"
   xml:space="preserve"
   inkscape:version="1.2.2 (b0a8486541, 2022-12-01)"
   sodipodi:docname="left.svg"
   inkscape:export-filename="left.png"
   inkscape:export-xdpi="96"
   inkscape:export-ydpi="96"
   xmlns:inkscape="http://www.inkscape.org/namespaces/inkscape"
   xmlns:sodipodi="http://sodipodi.sourceforge.net/DTD/sodipodi-0.dtd"
   xmlns="http://www.w3.org/2000/svg"
   xmlns:svg="http://www.w3.org/2000/svg"><sodipodi:namedview
     id="namedview2590"
     pagecolor="#ffffff"
     bordercolor="#666666"
     borderopacity="1.0"
     inkscape:showpageshadow="2"
     inkscape:pageopacity="0.0"
     inkscape:pagecheckerboard="0"
     inkscape:deskcolor="#d1d1d1"
     inkscape:document-units="mm"
     showgrid="true"
     inkscape:zoom="0.914906"
     inkscape:cx="64.487499"
     inkscape:cy="760.73389"
     inkscape:window-width="1440"
     inkscape:window-height="831"
     inkscape:window-x="0"
     inkscape:window-y="0"
     inkscape:window-maximized="1"
     inkscape:current-layer="layer1"><inkscape:grid
       type="xygrid"
       id="grid2721"
       spacingy="19.05"
       spacingx="99.483332"
       originy="12.170833"
       originx="2.1166666" /></sodipodi:namedview><defs
     id="defs2585" /><g
     inkscape:label="Layer 1"
     inkscape:groupmode="layer"
     id="layer1"><text
       xml:space="preserve"
       style="font-weight:bold;font-size:7.76111px;line-height:1.25;font-family:Figtree;-inkscape-font-specification:'Figtree Bold';stroke-width:0.264583"
       x="2.1166666"
       y="12.170833"
       id="text2725"><tspan
         sodipodi:role="line"
         id="tspan2723"
         style="font-style:normal;font-variant:normal;font-weight:500;font-stretch:normal;font-size:7.76111px;font-family:Figtree;-inkscape-font-specification:'Figtree Medium';fill:#ccbbaa;fill-opacity:1;stroke-width:0.264583"
         x="2.1166666"
         y="12.170833">System sound volume</tspan></text><text
       xml:space="preserve"
       style="font-weight:bold;font-size:7.76111px;line-height:1.25;font-family:Figtree;-inkscape-font-specification:'Figtree Bold';stroke-width:0.264583"
       x="2.1166666"
       y="31.220833"
       id="text3266"><tspan
         sodipodi:role="line"
         id="tspan3264"
         style="font-style:normal;font-variant:normal;font-weight:500;font-stretch:normal;font-size:7.76111px;font-family:Figtree;-inkscape-font-specification:'Figtree Medium';fill:#ccbbaa;fill-opacity:1;stroke-width:0.264583"
         x="2.1166666"
         y="31.220833">BGM volume</tspan></text><text
       xml:space="preserve"
       style="font-weight:bold;font-size:7.76111px;line-height:1.25;font-family:Figtree;-inkscape-font-specification:'Figtree Bold';stroke-width:0.264583"
       x="2.1166666"
       y="50.270832"
       id="text3270"><tspan
         sodipodi:role="line"
         id="tspan3268"
         style="font-style:normal;font-variant:normal;font-weight:500;font-stretch:normal;font-size:7.76111px;font-family:Figtree;-inkscape-font-specification:'Figtree Medium';fill:#ccbbaa;fill-opacity:1;stroke-width:0.264583"
         x="2.1166666"
         y="50.270832">Sound effect volume</tspan></text><text
       xml:space="preserve"
       style="font-weight:bold;font-size:7.76111px;line-height:1.25;font-family:Figtree;-inkscape-font-specification:'Figtree Bold';stroke-width:0.264583"
       x="2.1166666"
       y="69.320831"
       id="text3274"><tspan
         sodipodi:role="line"
         id="tspan3272"
         style="font-style:normal;font-variant:normal;font-weight:500;font-stretch:normal;font-size:7.76111px;font-family:Figtree;-inkscape-font-specification:'Figtree Medium';fill:#ccbbaa;fill-opacity:1;stroke-width:0.264583"
         x="2.1166666"
         y="69.320831">Voice volume</tspan></text><text
       xml:space="preserve"
       style="font-weight:bold;font-size:7.76111px;line-height:1.25;font-family:Figtree;-inkscape-font-specification:'Figtree Bold';stroke-width:0.264583"
       x="2.1166666"
       y="88.370827"
       id="text3278"><tspan
         sodipodi:role="line"
         id="tspan3276"
         style="font-style:normal;font-variant:normal;font-weight:500;font-stretch:normal;font-size:7.76111px;font-family:Figtree;-inkscape-font-specification:'Figtree Medium';fill:#ccbbaa;fill-opacity:1;stroke-width:0.264583"
         x="2.1166666"
         y="88.370827">Voice focus</tspan></text><text
       xml:space="preserve"
       style="font-weight:bold;font-size:7.76111px;line-height:1.25;font-family:Figtree;-inkscape-font-specification:'Figtree Bold';stroke-width:0.264583"
       x="2.1166666"
       y="107.42083"
       id="text3282"><tspan
         sodipodi:role="line"
         id="tspan3280"
         style="font-style:normal;font-variant:normal;font-weight:500;font-stretch:normal;font-size:7.76111px;font-family:Figtree;-inkscape-font-specification:'Figtree Medium';fill:#ccbbaa;fill-opacity:1;stroke-width:0.264583"
         x="2.1166666"
         y="107.42083">Continue voice with message sending</tspan></text><text
       xml:space="preserve"
       style="font-weight:bold;font-size:7.76111px;line-height:1.25;font-family:Figtree;-inkscape-font-specification:'Figtree Bold';stroke-width:0.264583"
       x="2.1166666"
       y="126.47084"
       id="text3286"><tspan
         sodipodi:role="line"
         id="tspan3284"
         style="font-style:normal;font-variant:normal;font-weight:500;font-stretch:normal;font-size:7.76111px;font-family:Figtree;-inkscape-font-specification:'Figtree Medium';fill:#ccbbaa;fill-opacity:1;stroke-width:0.264583"
         x="2.1166666"
         y="126.47084">Font</tspan></text><text
       xml:space="preserve"
       style="font-weight:bold;font-size:7.76111px;line-height:1.25;font-family:Figtree;-inkscape-font-specification:'Figtree Bold';stroke-width:0.264583"
       x="2.1166666"
       y="145.52084"
       id="text3290"><tspan
         sodipodi:role="line"
         id="tspan3288"
         style="font-style:normal;font-variant:normal;font-weight:500;font-stretch:normal;font-size:7.76111px;font-family:Figtree;-inkscape-font-specification:'Figtree Medium';fill:#ccbbaa;fill-opacity:1;stroke-width:0.264583"
         x="2.1166666"
         y="145.52084">Font decoration</tspan></text><text
       xml:space="preserve"
       style="font-weight:bold;font-size:7.76111px;line-height:1.25;font-family:Figtree;-inkscape-font-specification:'Figtree Bold';stroke-width:0.264583"
       x="2.1166666"
       y="183.62085"
       id="text3294"><tspan
         sodipodi:role="line"
         id="tspan3292"
         style="font-style:normal;font-variant:normal;font-weight:500;font-stretch:normal;font-size:7.76111px;font-family:Figtree;-inkscape-font-specification:'Figtree Medium';fill:#ccbbaa;fill-opacity:1;stroke-width:0.264583"
         x="2.1166666"
         y="183.62085">System sound volume</tspan></text><text
       xml:space="preserve"
       style="font-weight:bold;font-size:7.76111px;line-height:1.25;font-family:Figtree;-inkscape-font-specification:'Figtree Bold';stroke-width:0.264583"
       x="2.1166666"
       y="164.57083"
       id="text3298"><tspan
         sodipodi:role="line"
         id="tspan3296"
         style="font-style:normal;font-variant:normal;font-weight:500;font-stretch:normal;font-size:7.76111px;font-family:Figtree;-inkscape-font-specification:'Figtree Medium';fill:#ccbbaa;fill-opacity:1;stroke-width:0.264583"
         x="2.1166666"
         y="164.57083">Message display speed</tspan></text><text
       xml:space="preserve"
       style="font-weight:bold;font-size:7.76111px;line-height:1.25;font-family:Figtree;-inkscape-font-specification:'Figtree Bold';stroke-width:0.264583"
       x="2.1166666"
       y="202.67084"
       id="text3302"><tspan
         sodipodi:role="line"
         id="tspan3300"
         style="font-style:normal;font-variant:normal;font-weight:500;font-stretch:normal;font-size:7.76111px;font-family:Figtree;-inkscape-font-specification:'Figtree Medium';fill:#ccbbaa;fill-opacity:1;stroke-width:0.264583"
         x="2.1166666"
         y="202.67084">Auto mode speed</tspan></text><text
       xml:space="preserve"
       style="font-weight:bold;font-size:7.76111px;line-height:1.25;font-family:Figtree;-inkscape-font-specification:'Figtree Bold';stroke-width:0.264583"
       x="2.1166666"
       y="221.72083"
       id="text3306"><tspan
         sodipodi:role="line"
         id="tspan3304"
         style="font-style:normal;font-variant:normal;font-weight:500;font-stretch:normal;font-size:7.76111px;font-family:Figtree;-inkscape-font-specification:'Figtree Medium';fill:#ccbbaa;fill-opacity:1;stroke-width:0.264583"
         x="2.1166666"
         y="221.72083">Prevent skipping unread messages</tspan></text><text
       xml:space="preserve"
       style="font-weight:bold;font-size:7.76111px;line-height:1.25;font-family:Figtree;-inkscape-font-specification:'Figtree Bold';stroke-width:0.264583"
       x="2.1166666"
       y="240.77084"
       id="text3310"><tspan
         sodipodi:role="line"
         id="tspan3308"
         style="font-style:normal;font-variant:normal;font-weight:500;font-stretch:normal;font-size:7.76111px;font-family:Figtree;-inkscape-font-specification:'Figtree Medium';fill:#ccbbaa;fill-opacity:1;stroke-width:0.264583"
         x="2.1166666"
         y="240.77084">Suppress automatic sleep</tspan></text><text
       xml:space="preserve"
       style="font-weight:bold;font-size:7.76111px;line-height:1.25;font-family:Figtree;-inkscape-font-specification:'Figtree Bold';stroke-width:0.264583"
       x="2.1166666"
       y="259.82083"
       id="text3314"><tspan
         sodipodi:role="line"
         id="tspan3312"
         style="font-style:normal;font-variant:normal;font-weight:500;font-stretch:normal;font-size:7.76111px;font-family:Figtree;-inkscape-font-specification:'Figtree Medium';fill:#ccbbaa;fill-opacity:1;stroke-width:0.264583"
         x="2.1166666"
         y="259.82083">Controller mode</tspan></text><text
       xml:space="preserve"
       style="font-weight:bold;font-size:7.76111px;line-height:1.25;font-family:Figtree;-inkscape-font-specification:'Figtree Bold';stroke-width:0.264583"
       x="2.1166666"
       y="278.87085"
       id="text3318"><tspan
         sodipodi:role="line"
         id="tspan3316"
         style="font-style:normal;font-variant:normal;font-weight:500;font-stretch:normal;font-size:7.76111px;font-family:Figtree;-inkscape-font-specification:'Figtree Medium';fill:#ccbbaa;fill-opacity:1;stroke-width:0.264583"
         x="2.1166666"
         y="278.87085">Quicksave on new chapters</tspan></text><text
       xml:space="preserve"
       style="font-weight:bold;font-size:7.76111px;line-height:1.25;font-family:Figtree;-inkscape-font-specification:'Figtree Bold';stroke-width:0.264583"
       x="2.1166666"
       y="297.92084"
       id="text3322"><tspan
         sodipodi:role="line"
         id="tspan3320"
         style="font-style:normal;font-variant:normal;font-weight:500;font-stretch:normal;font-size:7.76111px;font-family:Figtree;-inkscape-font-specification:'Figtree Medium';fill:#ccbbaa;fill-opacity:1;stroke-width:0.264583"
         x="2.1166666"
         y="297.92084">Window transparency</tspan></text><text
       xml:space="preserve"
       style="font-weight:bold;font-size:7.76111px;line-height:1.25;font-family:Figtree;-inkscape-font-specification:'Figtree Bold';stroke-width:0.264583"
       x="2.1166666"
       y="316.97086"
       id="text3326"><tspan
         sodipodi:role="line"
         id="tspan3324"
         style="font-style:normal;font-variant:normal;font-weight:500;font-stretch:normal;font-size:7.76111px;font-family:Figtree;-inkscape-font-specification:'Figtree Medium';fill:#ccbbaa;fill-opacity:1;stroke-width:0.264583"
         x="2.1166666"
         y="316.97086">Track names</tspan></text><text
       xml:space="preserve"
       style="font-weight:bold;font-size:7.76111px;line-height:1.25;font-family:Figtree;-inkscape-font-specification:'Figtree Bold';stroke-width:0.264583"
       x="2.1166666"
       y="336.02084"
       id="text3330"><tspan
         sodipodi:role="line"
         id="tspan3328"
         style="font-style:normal;font-variant:normal;font-weight:500;font-stretch:normal;font-size:7.76111px;font-family:Figtree;-inkscape-font-specification:'Figtree Medium';fill:#ccbbaa;fill-opacity:1;stroke-width:0.264583"
         x="2.1166666"
         y="336.02084">Touch effects</tspan></text><text
       xml:space="preserve"
       style="font-weight:bold;font-size:7.76111px;line-height:1.25;font-family:Figtree;-inkscape-font-specification:'Figtree Bold';stroke-width:0.264583"
       x="2.1166666"
       y="355.07083"
       id="text3334"><tspan
         sodipodi:role="line"
         id="tspan3332"
         style="font-style:normal;font-variant:normal;font-weight:500;font-stretch:normal;font-size:7.76111px;font-family:Figtree;-inkscape-font-specification:'Figtree Medium';fill:#ccbbaa;fill-opacity:1;stroke-width:0.264583"
         x="2.1166666"
         y="355.07083">Voice panning</tspan></text><text
       xml:space="preserve"
       style="font-weight:bold;font-size:7.76111px;line-height:1.25;font-family:Figtree;-inkscape-font-specification:'Figtree Bold';stroke-width:0.264583"
       x="2.1166666"
       y="374.12085"
       id="text3338"><tspan
         sodipodi:role="line"
         id="tspan3336"
         style="font-style:normal;font-variant:normal;font-weight:500;font-stretch:normal;font-size:7.76111px;font-family:Figtree;-inkscape-font-specification:'Figtree Medium';fill:#ccbbaa;fill-opacity:1;stroke-width:0.264583"
         x="2.1166666"
         y="374.12085">Scene titles</tspan></text></g></svg>
