<?xml version="1.0" encoding="UTF-8" standalone="no"?>
<!-- Created with Inkscape (http://www.inkscape.org/) -->

<svg
   width="672"
   height="640"
   viewBox="0 0 177.8 169.33333"
   version="1.1"
   id="svg18366"
   xml:space="preserve"
   inkscape:version="1.2.2 (b0a8486541, 2022-12-01)"
   sodipodi:docname="right_frames.svg"
   inkscape:export-filename="right_frames.png"
   inkscape:export-xdpi="96"
   inkscape:export-ydpi="96"
   xmlns:inkscape="http://www.inkscape.org/namespaces/inkscape"
   xmlns:sodipodi="http://sodipodi.sourceforge.net/DTD/sodipodi-0.dtd"
   xmlns="http://www.w3.org/2000/svg"
   xmlns:svg="http://www.w3.org/2000/svg"><sodipodi:namedview
     id="namedview18368"
     pagecolor="#ffffff"
     bordercolor="#666666"
     borderopacity="1.0"
     inkscape:showpageshadow="2"
     inkscape:pageopacity="0.0"
     inkscape:pagecheckerboard="0"
     inkscape:deskcolor="#d1d1d1"
     inkscape:document-units="px"
     showgrid="true"
     showguides="true"
     inkscape:zoom="10.35098"
     inkscape:cx="619.02351"
     inkscape:cy="219.35121"
     inkscape:window-width="1444"
     inkscape:window-height="1236"
     inkscape:window-x="2853"
     inkscape:window-y="82"
     inkscape:window-maximized="0"
     inkscape:current-layer="layer1"><sodipodi:guide
       position="66.410416,165.89375"
       orientation="-1,0"
       id="guide18499"
       inkscape:locked="false"
       inkscape:label=""
       inkscape:color="rgb(0,134,229)" /><sodipodi:guide
       position="0,165.89375"
       orientation="0,1"
       id="guide18523"
       inkscape:locked="false"
       inkscape:label=""
       inkscape:color="rgb(0,134,229)" /><sodipodi:guide
       position="62.706249,169.33333"
       orientation="-1,0"
       id="guide18525"
       inkscape:locked="false"
       inkscape:label=""
       inkscape:color="rgb(0,134,229)" /><sodipodi:guide
       position="62.70625,162.18958"
       orientation="0,1"
       id="guide18527"
       inkscape:locked="false"
       inkscape:label=""
       inkscape:color="rgb(0,134,229)" /><sodipodi:guide
       position="62.70625,155.31042"
       orientation="0,1"
       id="guide18529"
       inkscape:locked="false"
       inkscape:label=""
       inkscape:color="rgb(0,134,229)" /><sodipodi:guide
       position="66.410417,151.60625"
       orientation="0,1"
       id="guide18531"
       inkscape:locked="false"
       inkscape:label=""
       inkscape:color="rgb(0,134,229)" /><sodipodi:guide
       position="111.38958,165.89375"
       orientation="-1,0"
       id="guide18533"
       inkscape:locked="false"
       inkscape:label=""
       inkscape:color="rgb(0,134,229)" /><sodipodi:guide
       position="115.09375,162.18958"
       orientation="-1,0"
       id="guide18535"
       inkscape:locked="false"
       inkscape:label=""
       inkscape:color="rgb(0,134,229)" /><inkscape:grid
       type="xygrid"
       id="grid21178"
       originx="66.410416"
       spacingx="59.266666"
       spacingy="21.166666"
       originy="3.4395833"
       empspacing="1" /></sodipodi:namedview><defs
     id="defs18363"><filter
       style="color-interpolation-filters:sRGB;"
       inkscape:label="Blur"
       id="filter28265"
       x="-0.055913465"
       y="-0.018030725"
       width="1.1118269"
       height="1.0360615"><feGaussianBlur
         stdDeviation="1 1"
         result="blur"
         id="feGaussianBlur28263" /></filter><filter
       style="color-interpolation-filters:sRGB;"
       inkscape:label="Blur"
       id="filter10293"
       x="-0.054145789"
       y="-0.017460693"
       width="1.1082916"
       height="1.0349214"><feGaussianBlur
         stdDeviation="1 1"
         result="blur"
         id="feGaussianBlur10291" /></filter></defs><g
     inkscape:label="Layer 1"
     inkscape:groupmode="layer"
     id="layer1"><g
       id="g27156"
       style="stroke:#dd1100;stroke-opacity:1;stroke-width:1.05833332;stroke-dasharray:none;filter:url(#filter28265)"><path
         style="fill:none;stroke:#dd1100;stroke-width:1.05833332;stroke-linecap:butt;stroke-linejoin:miter;stroke-dasharray:none;stroke-opacity:1"
         d="m 125.67708,3.4395817 h 44.97917 l 3.70417,3.7041701 v 6.8791602 l -3.70417,3.70417 h -44.97917 l -3.70416,-3.70417 V 7.1437518 Z"
         id="path27140" /><path
         style="fill:none;stroke:#dd1100;stroke-width:1.05833332;stroke-linecap:butt;stroke-linejoin:miter;stroke-dasharray:none;stroke-opacity:1"
         d="m 125.67708,24.606249 h 44.97916 l 3.70417,3.70417 v 6.87916 l -3.70417,3.70417 h -44.97916 l -3.70416,-3.70417 v -6.87916 z"
         id="path27142" /><path
         style="fill:none;stroke:#dd1100;stroke-width:1.05833332;stroke-linecap:butt;stroke-linejoin:miter;stroke-dasharray:none;stroke-opacity:1"
         d="m 125.67708,45.772915 h 44.97916 l 3.70417,3.70417 v 6.87916 l -3.70417,3.70417 h -44.97916 l -3.70416,-3.70417 v -6.87916 z"
         id="path27144" /><path
         style="fill:none;stroke:#dd1100;stroke-width:1.05833332;stroke-linecap:butt;stroke-linejoin:miter;stroke-dasharray:none;stroke-opacity:1"
         d="m 125.67708,66.939581 h 44.97916 l 3.70417,3.70417 v 6.87916 l -3.70417,3.70417 h -44.97916 l -3.70416,-3.70417 v -6.87916 z"
         id="path27146" /><path
         style="fill:none;stroke:#dd1100;stroke-width:1.05833332;stroke-linecap:butt;stroke-linejoin:miter;stroke-dasharray:none;stroke-opacity:1"
         d="m 125.67708,88.106247 h 44.97916 l 3.70417,3.70417 v 6.87916 l -3.70417,3.704173 h -44.97916 l -3.70416,-3.704173 v -6.87916 z"
         id="path27148" /><path
         style="fill:none;stroke:#dd1100;stroke-width:1.05833332;stroke-linecap:butt;stroke-linejoin:miter;stroke-dasharray:none;stroke-opacity:1"
         d="m 125.67708,109.27291 h 44.97916 l 3.70417,3.70417 v 6.87916 l -3.70417,3.70418 h -44.97916 l -3.70416,-3.70418 v -6.87916 z"
         id="path27150" /><path
         style="fill:none;stroke:#dd1100;stroke-width:1.05833332;stroke-linecap:butt;stroke-linejoin:miter;stroke-dasharray:none;stroke-opacity:1"
         d="m 125.67708,130.43958 h 44.97916 l 3.70417,3.70417 v 6.87916 l -3.70417,3.70418 h -44.97916 l -3.70416,-3.70418 v -6.87916 z"
         id="path27152" /><path
         style="fill:none;stroke:#dd1100;stroke-width:1.05833332;stroke-linecap:butt;stroke-linejoin:miter;stroke-dasharray:none;stroke-opacity:1"
         d="m 125.67708,151.60625 h 44.97916 l 3.70417,3.70417 v 6.87916 l -3.70417,3.70418 h -44.97916 l -3.70416,-3.70418 v -6.87916 z"
         id="path27154" /></g><g
       id="g25686"
       style="stroke:#dd1100;stroke-opacity:1;stroke-width:0.87312499;stroke-dasharray:none;filter:url(#filter10293)"><path
         style="fill:none;stroke:#dd1100;stroke-width:0.87312499;stroke-linecap:butt;stroke-linejoin:miter;stroke-dasharray:none;stroke-opacity:1"
         d="m 125.67708,3.4395817 h 44.97917 l 3.70417,3.7041701 v 6.8791602 l -3.70417,3.70417 h -44.97917 l -3.70416,-3.70417 V 7.1437518 Z"
         id="path25670" /><path
         style="fill:none;stroke:#dd1100;stroke-width:0.87312499;stroke-linecap:butt;stroke-linejoin:miter;stroke-dasharray:none;stroke-opacity:1"
         d="m 125.67708,24.606249 h 44.97916 l 3.70417,3.70417 v 6.87916 l -3.70417,3.70417 h -44.97916 l -3.70416,-3.70417 v -6.87916 z"
         id="path25672" /><path
         style="fill:none;stroke:#dd1100;stroke-width:0.87312499;stroke-linecap:butt;stroke-linejoin:miter;stroke-dasharray:none;stroke-opacity:1"
         d="m 125.67708,45.772915 h 44.97916 l 3.70417,3.70417 v 6.87916 l -3.70417,3.70417 h -44.97916 l -3.70416,-3.70417 v -6.87916 z"
         id="path25674" /><path
         style="fill:none;stroke:#dd1100;stroke-width:0.87312499;stroke-linecap:butt;stroke-linejoin:miter;stroke-dasharray:none;stroke-opacity:1"
         d="m 125.67708,66.939581 h 44.97916 l 3.70417,3.70417 v 6.87916 l -3.70417,3.70417 h -44.97916 l -3.70416,-3.70417 v -6.87916 z"
         id="path25676" /><path
         style="fill:none;stroke:#dd1100;stroke-width:0.87312499;stroke-linecap:butt;stroke-linejoin:miter;stroke-dasharray:none;stroke-opacity:1"
         d="m 125.67708,88.106247 h 44.97916 l 3.70417,3.70417 v 6.87916 l -3.70417,3.704173 h -44.97916 l -3.70416,-3.704173 v -6.87916 z"
         id="path25678" /><path
         style="fill:none;stroke:#dd1100;stroke-width:0.87312499;stroke-linecap:butt;stroke-linejoin:miter;stroke-dasharray:none;stroke-opacity:1"
         d="m 125.67708,109.27291 h 44.97916 l 3.70417,3.70417 v 6.87916 l -3.70417,3.70418 h -44.97916 l -3.70416,-3.70418 v -6.87916 z"
         id="path25680" /><path
         style="fill:none;stroke:#dd1100;stroke-width:0.87312499;stroke-linecap:butt;stroke-linejoin:miter;stroke-dasharray:none;stroke-opacity:1"
         d="m 125.67708,130.43958 h 44.97916 l 3.70417,3.70417 v 6.87916 l -3.70417,3.70418 h -44.97916 l -3.70416,-3.70418 v -6.87916 z"
         id="path25682" /><path
         style="fill:none;stroke:#dd1100;stroke-width:0.87312499;stroke-linecap:butt;stroke-linejoin:miter;stroke-dasharray:none;stroke-opacity:1"
         d="m 125.67708,151.60625 h 44.97916 l 3.70417,3.70417 v 6.87916 l -3.70417,3.70418 h -44.97916 l -3.70416,-3.70418 v -6.87916 z"
         id="path25684" /></g><path
       style="fill:none;stroke:#ccbbaa;stroke-width:0.52916666;stroke-linecap:butt;stroke-linejoin:miter;stroke-opacity:1;stroke-dasharray:none"
       d="m 66.410416,3.4395817 h 44.979164 l 3.70417,3.7041701 v 6.8791602 l -3.70417,3.70417 H 66.410416 l -3.704167,-3.70417 V 7.1437518 Z"
       id="path18591" /><path
       style="fill:none;stroke:#ccbbaa;stroke-width:0.529167;stroke-linecap:butt;stroke-linejoin:miter;stroke-dasharray:none;stroke-opacity:1"
       d="m 66.410416,24.606249 h 44.979154 l 3.70417,3.70417 v 6.87916 l -3.70417,3.70417 H 66.410416 l -3.704167,-3.70417 v -6.87916 z"
       id="path24084" /><path
       style="fill:none;stroke:#ccbbaa;stroke-width:0.529167;stroke-linecap:butt;stroke-linejoin:miter;stroke-dasharray:none;stroke-opacity:1"
       d="m 66.410416,45.772915 h 44.979154 l 3.70417,3.70417 v 6.87916 l -3.70417,3.70417 H 66.410416 l -3.704167,-3.70417 v -6.87916 z"
       id="path24086" /><path
       style="fill:none;stroke:#ccbbaa;stroke-width:0.529167;stroke-linecap:butt;stroke-linejoin:miter;stroke-dasharray:none;stroke-opacity:1"
       d="m 66.410416,66.939581 h 44.979154 l 3.70417,3.70417 v 6.87916 l -3.70417,3.70417 H 66.410416 l -3.704167,-3.70417 v -6.87916 z"
       id="path25557" /><path
       style="fill:none;stroke:#ccbbaa;stroke-width:0.529167;stroke-linecap:butt;stroke-linejoin:miter;stroke-dasharray:none;stroke-opacity:1"
       d="m 66.410416,88.106247 h 44.979154 l 3.70417,3.70417 v 6.87916 l -3.70417,3.704173 H 66.410416 l -3.704167,-3.704173 v -6.87916 z"
       id="path25559" /><path
       style="fill:none;stroke:#ccbbaa;stroke-width:0.529167;stroke-linecap:butt;stroke-linejoin:miter;stroke-dasharray:none;stroke-opacity:1"
       d="m 66.410416,109.27291 h 44.979154 l 3.70417,3.70417 v 6.87916 l -3.70417,3.70418 H 66.410416 l -3.704167,-3.70418 v -6.87916 z"
       id="path25561" /><path
       style="fill:none;stroke:#ccbbaa;stroke-width:0.529167;stroke-linecap:butt;stroke-linejoin:miter;stroke-dasharray:none;stroke-opacity:1"
       d="m 66.410416,130.43958 h 44.979154 l 3.70417,3.70417 v 6.87916 l -3.70417,3.70418 H 66.410416 l -3.704167,-3.70418 v -6.87916 z"
       id="path25563" /><path
       style="fill:none;stroke:#ccbbaa;stroke-width:0.529167;stroke-linecap:butt;stroke-linejoin:miter;stroke-dasharray:none;stroke-opacity:1"
       d="m 66.410416,151.60625 h 44.979154 l 3.70417,3.70417 v 6.87916 l -3.70417,3.70418 H 66.410416 l -3.704167,-3.70418 v -6.87916 z"
       id="path25565" /><g
       id="g25668"
       style="stroke:#ffffff;stroke-opacity:1;stroke-width:0.52916666;stroke-dasharray:none"><path
         style="fill:none;stroke:#ffffff;stroke-width:0.52916666;stroke-linecap:butt;stroke-linejoin:miter;stroke-dasharray:none;stroke-opacity:1"
         d="m 125.67708,3.4395817 h 44.97917 l 3.70417,3.7041701 v 6.8791602 l -3.70417,3.70417 h -44.97917 l -3.70416,-3.70417 V 7.1437518 Z"
         id="path25628" /><path
         style="fill:none;stroke:#ffffff;stroke-width:0.52916666;stroke-linecap:butt;stroke-linejoin:miter;stroke-dasharray:none;stroke-opacity:1"
         d="m 125.67708,24.606249 h 44.97916 l 3.70417,3.70417 v 6.87916 l -3.70417,3.70417 h -44.97916 l -3.70416,-3.70417 v -6.87916 z"
         id="path25630" /><path
         style="fill:none;stroke:#ffffff;stroke-width:0.52916666;stroke-linecap:butt;stroke-linejoin:miter;stroke-dasharray:none;stroke-opacity:1"
         d="m 125.67708,45.772915 h 44.97916 l 3.70417,3.70417 v 6.87916 l -3.70417,3.70417 h -44.97916 l -3.70416,-3.70417 v -6.87916 z"
         id="path25632" /><path
         style="fill:none;stroke:#ffffff;stroke-width:0.52916666;stroke-linecap:butt;stroke-linejoin:miter;stroke-dasharray:none;stroke-opacity:1"
         d="m 125.67708,66.939581 h 44.97916 l 3.70417,3.70417 v 6.87916 l -3.70417,3.70417 h -44.97916 l -3.70416,-3.70417 v -6.87916 z"
         id="path25634" /><path
         style="fill:none;stroke:#ffffff;stroke-width:0.52916666;stroke-linecap:butt;stroke-linejoin:miter;stroke-dasharray:none;stroke-opacity:1"
         d="m 125.67708,88.106247 h 44.97916 l 3.70417,3.70417 v 6.87916 l -3.70417,3.704173 h -44.97916 l -3.70416,-3.704173 v -6.87916 z"
         id="path25636" /><path
         style="fill:none;stroke:#ffffff;stroke-width:0.52916666;stroke-linecap:butt;stroke-linejoin:miter;stroke-dasharray:none;stroke-opacity:1"
         d="m 125.67708,109.27291 h 44.97916 l 3.70417,3.70417 v 6.87916 l -3.70417,3.70418 h -44.97916 l -3.70416,-3.70418 v -6.87916 z"
         id="path25638" /><path
         style="fill:none;stroke:#ffffff;stroke-width:0.52916666;stroke-linecap:butt;stroke-linejoin:miter;stroke-dasharray:none;stroke-opacity:1"
         d="m 125.67708,130.43958 h 44.97916 l 3.70417,3.70417 v 6.87916 l -3.70417,3.70418 h -44.97916 l -3.70416,-3.70418 v -6.87916 z"
         id="path25640" /><path
         style="fill:none;stroke:#ffffff;stroke-width:0.52916666;stroke-linecap:butt;stroke-linejoin:miter;stroke-dasharray:none;stroke-opacity:1"
         d="m 125.67708,151.60625 h 44.97916 l 3.70417,3.70417 v 6.87916 l -3.70417,3.70418 h -44.97916 l -3.70416,-3.70418 v -6.87916 z"
         id="path25642" /></g></g></svg>
