<?xml version="1.0" encoding="UTF-8" standalone="no"?>
<!-- Created with Inkscape (http://www.inkscape.org/) -->

<svg
   width="1618"
   height="240"
   viewBox="0 0 428.09582 63.499998"
   version="1.1"
   id="svg5"
   xml:space="preserve"
   inkscape:version="1.2.2 (b0a8486541, 2022-12-01)"
   sodipodi:docname="tg_event11_水無.svg"
   inkscape:export-filename="../raster/tg_event11_水無.png"
   inkscape:export-xdpi="96"
   inkscape:export-ydpi="96"
   xmlns:inkscape="http://www.inkscape.org/namespaces/inkscape"
   xmlns:sodipodi="http://sodipodi.sourceforge.net/DTD/sodipodi-0.dtd"
   xmlns="http://www.w3.org/2000/svg"
   xmlns:svg="http://www.w3.org/2000/svg"><sodipodi:namedview
     id="namedview7"
     pagecolor="#ffffff"
     bordercolor="#666666"
     borderopacity="1.0"
     inkscape:showpageshadow="2"
     inkscape:pageopacity="0.0"
     inkscape:pagecheckerboard="0"
     inkscape:deskcolor="#d1d1d1"
     inkscape:document-units="px"
     showgrid="false"
     inkscape:zoom="0.64693624"
     inkscape:cx="480.72744"
     inkscape:cy="231.86211"
     inkscape:window-width="2514"
     inkscape:window-height="1409"
     inkscape:window-x="46"
     inkscape:window-y="0"
     inkscape:window-maximized="1"
     inkscape:current-layer="layer1" /><defs
     id="defs2"><filter
       style="color-interpolation-filters:sRGB"
       inkscape:label="Blur"
       id="filter7565"
       x="-0.014811738"
       y="-0.087190422"
       width="1.0296235"
       height="1.1743808"><feGaussianBlur
         stdDeviation="1.8 1.8"
         result="blur"
         id="feGaussianBlur7563" /></filter></defs><g
     inkscape:label="Layer 1"
     inkscape:groupmode="layer"
     id="layer1"><text
       xml:space="preserve"
       style="font-size:24.6944px;line-height:1.25;font-family:Broadsheet;-inkscape-font-specification:Broadsheet;text-align:center;text-anchor:middle;fill:#f20000;fill-opacity:1;stroke:#f20000;stroke-width:0.661458;stroke-linejoin:round;stroke-dasharray:none;stroke-opacity:1;paint-order:normal;filter:url(#filter7565)"
       x="214.92456"
       y="21.205492"
       id="text7174"><tspan
         sodipodi:role="line"
         id="tspan7172"
         style="font-size:24.6944px;fill:#f20000;fill-opacity:1;stroke:#f20000;stroke-width:0.661458;stroke-linejoin:round;stroke-dasharray:none;stroke-opacity:1;paint-order:normal"
         x="214.92456"
         y="21.205492">The transformation stick from</tspan><tspan
         sodipodi:role="line"
         style="font-size:24.6944px;fill:#f20000;fill-opacity:1;stroke:#f20000;stroke-width:0.661458;stroke-linejoin:round;stroke-dasharray:none;stroke-opacity:1;paint-order:normal"
         x="214.92456"
         y="52.07349"
         id="tspan430">Magical Fashion Star: Layers Five.</tspan></text><text
       xml:space="preserve"
       style="font-size:24.6944px;line-height:1.25;font-family:Broadsheet;-inkscape-font-specification:Broadsheet;text-align:center;text-anchor:middle;fill:#000000;fill-opacity:1;stroke:#f20000;stroke-width:0.661458;stroke-linejoin:round;stroke-dasharray:none;stroke-opacity:1;paint-order:normal"
       x="214.92458"
       y="21.20549"
       id="text356"><tspan
         sodipodi:role="line"
         id="tspan354"
         style="font-size:24.6944px;fill:#000000;fill-opacity:1;stroke:#f20000;stroke-width:0.661458;stroke-linejoin:round;stroke-dasharray:none;stroke-opacity:1;paint-order:normal"
         x="214.92458"
         y="21.20549">The transformation stick from</tspan><tspan
         sodipodi:role="line"
         style="font-size:24.6944px;fill:#000000;fill-opacity:1;stroke:#f20000;stroke-width:0.661458;stroke-linejoin:round;stroke-dasharray:none;stroke-opacity:1;paint-order:normal"
         x="214.92458"
         y="52.07349"
         id="tspan428">Magical Fashion Star: Layers Five.</tspan></text></g></svg>
