<?xml version="1.0" encoding="UTF-8" standalone="no"?>
<!-- Created with Inkscape (http://www.inkscape.org/) -->

<svg
   width="1064"
   height="230"
   viewBox="0 0 281.51666 60.854165"
   version="1.1"
   id="svg1869"
   xml:space="preserve"
   inkscape:version="1.2.2 (b0a8486541, 2022-12-01)"
   sodipodi:docname="tg_event12_水無1.svg"
   inkscape:export-filename="../raster/tg_event12_水無1.png"
   inkscape:export-xdpi="96"
   inkscape:export-ydpi="96"
   xmlns:inkscape="http://www.inkscape.org/namespaces/inkscape"
   xmlns:sodipodi="http://sodipodi.sourceforge.net/DTD/sodipodi-0.dtd"
   xmlns="http://www.w3.org/2000/svg"
   xmlns:svg="http://www.w3.org/2000/svg"><sodipodi:namedview
     id="namedview1871"
     pagecolor="#000000"
     bordercolor="#666666"
     borderopacity="1.0"
     inkscape:showpageshadow="2"
     inkscape:pageopacity="0"
     inkscape:pagecheckerboard="0"
     inkscape:deskcolor="#d1d1d1"
     inkscape:document-units="mm"
     showgrid="false"
     inkscape:zoom="1"
     inkscape:cx="536"
     inkscape:cy="54"
     inkscape:window-width="2514"
     inkscape:window-height="1409"
     inkscape:window-x="46"
     inkscape:window-y="0"
     inkscape:window-maximized="1"
     inkscape:current-layer="layer1" /><defs
     id="defs1866"><filter
       style="color-interpolation-filters:sRGB"
       inkscape:label="Blur"
       id="filter4230"
       x="-0.014572246"
       y="-0.08938096"
       width="1.0291445"
       height="1.1787619"><feGaussianBlur
         stdDeviation="1.3999999999999999 1.3999999999999999"
         result="blur"
         id="feGaussianBlur4228" /></filter></defs><g
     inkscape:label="Layer 1"
     inkscape:groupmode="layer"
     id="layer1"><text
       xml:space="preserve"
       style="font-size:19.7556px;line-height:1.25;font-family:Cantarell;-inkscape-font-specification:Cantarell;letter-spacing:0px;fill:#faf3ca;fill-opacity:1;stroke:#faf3ca;stroke-width:1;stroke-linejoin:round;stroke-dasharray:none;stroke-opacity:1;paint-order:stroke fill markers;filter:url(#filter4230)"
       x="140.83549"
       y="22.261751"
       id="text3823"><tspan
         sodipodi:role="line"
         style="font-style:normal;font-variant:normal;font-weight:600;font-stretch:normal;font-size:19.7556px;font-family:'Crimson Pro';-inkscape-font-specification:'Crimson Pro Semi-Bold';text-align:center;text-anchor:middle;fill:#faf3ca;fill-opacity:1;stroke:#faf3ca;stroke-width:1;stroke-linejoin:round;stroke-dasharray:none;stroke-opacity:1;paint-order:stroke fill markers"
         x="140.83549"
         y="22.261751"
         id="tspan894">I mean. ……I loved Doremi-chan,</tspan><tspan
         sodipodi:role="line"
         style="font-style:normal;font-variant:normal;font-weight:600;font-stretch:normal;font-size:19.7556px;font-family:'Crimson Pro';-inkscape-font-specification:'Crimson Pro Semi-Bold';text-align:center;text-anchor:middle;fill:#faf3ca;fill-opacity:1;stroke:#faf3ca;stroke-width:1;stroke-linejoin:round;stroke-dasharray:none;stroke-opacity:1;paint-order:stroke fill markers"
         x="140.83549"
         y="47.621338"
         id="tspan2985">I loved her, I really loved her.</tspan></text><text
       xml:space="preserve"
       style="font-size:19.7556px;line-height:1.25;font-family:Cantarell;-inkscape-font-specification:Cantarell;letter-spacing:0px;fill:#faf3ca;fill-opacity:1;stroke:#000000;stroke-width:1.065;stroke-linejoin:round;stroke-dasharray:none;stroke-opacity:1;paint-order:stroke fill markers"
       x="140.83551"
       y="22.261753"
       id="text2367"><tspan
         sodipodi:role="line"
         style="font-style:normal;font-variant:normal;font-weight:600;font-stretch:normal;font-size:19.7556px;font-family:'Crimson Pro';-inkscape-font-specification:'Crimson Pro Semi-Bold';text-align:center;text-anchor:middle;fill:#faf3ca;fill-opacity:1;stroke:#000000;stroke-width:1.065;stroke-linejoin:round;stroke-dasharray:none;stroke-opacity:1;paint-order:stroke fill markers"
         x="140.83551"
         y="22.261753"
         id="tspan892">I mean. ……I loved Doremi-chan,</tspan><tspan
         sodipodi:role="line"
         style="font-style:normal;font-variant:normal;font-weight:600;font-stretch:normal;font-size:19.7556px;font-family:'Crimson Pro';-inkscape-font-specification:'Crimson Pro Semi-Bold';text-align:center;text-anchor:middle;fill:#faf3ca;fill-opacity:1;stroke:#000000;stroke-width:1.065;stroke-linejoin:round;stroke-dasharray:none;stroke-opacity:1;paint-order:stroke fill markers"
         x="140.83551"
         y="47.621342"
         id="tspan1532">I loved her, I really loved her.</tspan></text></g></svg>
