<?xml version="1.0" encoding="UTF-8" standalone="no"?>
<!-- Created with Inkscape (http://www.inkscape.org/) -->

<svg
   width="1800"
   height="220"
   viewBox="0 0 476.24999 58.208332"
   version="1.1"
   id="svg5"
   xml:space="preserve"
   inkscape:version="1.2.2 (b0a8486541, 2022-12-01)"
   sodipodi:docname="tg_event12_水無2.svg"
   inkscape:export-filename="../raster/tg_event12_水無2.png"
   inkscape:export-xdpi="96"
   inkscape:export-ydpi="96"
   xmlns:inkscape="http://www.inkscape.org/namespaces/inkscape"
   xmlns:sodipodi="http://sodipodi.sourceforge.net/DTD/sodipodi-0.dtd"
   xmlns="http://www.w3.org/2000/svg"
   xmlns:svg="http://www.w3.org/2000/svg"><sodipodi:namedview
     id="namedview7"
     pagecolor="#ffffff"
     bordercolor="#666666"
     borderopacity="1.0"
     inkscape:showpageshadow="2"
     inkscape:pageopacity="0.0"
     inkscape:pagecheckerboard="0"
     inkscape:deskcolor="#d1d1d1"
     inkscape:document-units="px"
     showgrid="false"
     inkscape:zoom="2.5877449"
     inkscape:cx="1218.8218"
     inkscape:cy="22.413337"
     inkscape:window-width="2514"
     inkscape:window-height="1409"
     inkscape:window-x="46"
     inkscape:window-y="0"
     inkscape:window-maximized="1"
     inkscape:current-layer="layer1" /><defs
     id="defs2"><filter
       style="color-interpolation-filters:sRGB"
       inkscape:label="Blur"
       id="filter7565"
       x="-0.010108537"
       y="-0.10291294"
       width="1.0202171"
       height="1.2058259"><feGaussianBlur
         stdDeviation="1.8 1.8"
         result="blur"
         id="feGaussianBlur7563" /></filter></defs><g
     inkscape:label="Layer 1"
     inkscape:groupmode="layer"
     id="layer1"><text
       xml:space="preserve"
       style="font-size:21.1667px;line-height:1.25;font-family:Broadsheet;-inkscape-font-specification:Broadsheet;text-align:center;text-anchor:middle;fill:#f20000;fill-opacity:1;stroke:#f20000;stroke-width:0.661458;stroke-linejoin:round;stroke-dasharray:none;stroke-opacity:1;paint-order:normal;filter:url(#filter7565)"
       x="238.66475"
       y="20.330568"
       id="text7174"><tspan
         sodipodi:role="line"
         style="font-size:21.1667px;fill:#f20000;fill-opacity:1;stroke:#f20000;stroke-width:0.661458;stroke-linejoin:round;stroke-dasharray:none;stroke-opacity:1;paint-order:normal"
         x="238.66475"
         y="20.330568"
         id="tspan430">It's because I trusted her... from the bottom of my heart...,</tspan><tspan
         sodipodi:role="line"
         style="font-size:21.1667px;fill:#f20000;fill-opacity:1;stroke:#f20000;stroke-width:0.661458;stroke-linejoin:round;stroke-dasharray:none;stroke-opacity:1;paint-order:normal"
         x="238.66475"
         y="46.788944"
         id="tspan492">...that I couldn't forgive her.......</tspan></text><text
       xml:space="preserve"
       style="font-size:21.1667px;line-height:1.25;font-family:Broadsheet;-inkscape-font-specification:Broadsheet;text-align:center;text-anchor:middle;fill:#e70000;fill-opacity:1;stroke:#000000;stroke-width:0.79374998;stroke-linejoin:round;stroke-dasharray:none;stroke-opacity:1;paint-order:normal"
       x="238.66475"
       y="20.330568"
       id="text356"><tspan
         sodipodi:role="line"
         style="font-size:21.1667px;fill:#e70000;fill-opacity:1;stroke:#000000;stroke-width:0.79374998;stroke-linejoin:round;stroke-dasharray:none;stroke-opacity:1;paint-order:normal"
         x="238.66475"
         y="20.330568"
         id="tspan428">It's because I trusted her... from the bottom of my heart...,</tspan><tspan
         sodipodi:role="line"
         style="font-size:21.1667px;fill:#e70000;fill-opacity:1;stroke:#000000;stroke-width:0.79374998;stroke-linejoin:round;stroke-dasharray:none;stroke-opacity:1;paint-order:normal"
         x="238.66475"
         y="46.788944"
         id="tspan486">...that I couldn't forgive her.......</tspan></text></g></svg>
