<?xml version="1.0" encoding="UTF-8" standalone="no"?>
<!-- Created with Inkscape (http://www.inkscape.org/) -->

<svg
   width="895"
   height="132"
   viewBox="0 0 236.80183 34.925"
   version="1.1"
   id="svg5"
   xml:space="preserve"
   inkscape:version="1.2.2 (b0a8486541, 2022-12-01)"
   sodipodi:docname="tg_無罪汎用赤.svg"
   inkscape:export-filename="../raster/tg_無罪汎用赤.png"
   inkscape:export-xdpi="96"
   inkscape:export-ydpi="96"
   xmlns:inkscape="http://www.inkscape.org/namespaces/inkscape"
   xmlns:sodipodi="http://sodipodi.sourceforge.net/DTD/sodipodi-0.dtd"
   xmlns="http://www.w3.org/2000/svg"
   xmlns:svg="http://www.w3.org/2000/svg"><sodipodi:namedview
     id="namedview7"
     pagecolor="#ffffff"
     bordercolor="#666666"
     borderopacity="1.0"
     inkscape:showpageshadow="2"
     inkscape:pageopacity="0.0"
     inkscape:pagecheckerboard="0"
     inkscape:deskcolor="#d1d1d1"
     inkscape:document-units="px"
     showgrid="false"
     inkscape:zoom="0.64693624"
     inkscape:cx="197.85567"
     inkscape:cy="191.67268"
     inkscape:window-width="2514"
     inkscape:window-height="1409"
     inkscape:window-x="46"
     inkscape:window-y="0"
     inkscape:window-maximized="1"
     inkscape:current-layer="layer1" /><defs
     id="defs2"><filter
       style="color-interpolation-filters:sRGB"
       inkscape:label="Blur"
       id="filter7565"
       x="-0.029247789"
       y="-0.19836943"
       width="1.0584956"
       height="1.3967389"><feGaussianBlur
         stdDeviation="1.8 1.8"
         result="blur"
         id="feGaussianBlur7563" /></filter></defs><g
     inkscape:label="Layer 1"
     inkscape:groupmode="layer"
     id="layer1"><text
       xml:space="preserve"
       style="font-size:24.6944px;line-height:1.25;font-family:Broadsheet;-inkscape-font-specification:Broadsheet;text-align:center;text-anchor:middle;fill:#f20000;fill-opacity:1;stroke:#f20000;stroke-width:0.661458;stroke-linejoin:round;stroke-dasharray:none;stroke-opacity:1;paint-order:normal;filter:url(#filter7565)"
       x="119.41132"
       y="23.523775"
       id="text7174"><tspan
         sodipodi:role="line"
         id="tspan7172"
         style="font-style:normal;font-variant:normal;font-weight:normal;font-stretch:normal;font-size:24.6944px;font-family:Chandler42;-inkscape-font-specification:Chandler42;fill:#f20000;fill-opacity:1;stroke:#f20000;stroke-width:0.661458;stroke-linejoin:round;stroke-dasharray:none;stroke-opacity:1;paint-order:normal"
         x="119.41132"
         y="23.523775">—“Not guilty.”</tspan></text><text
       xml:space="preserve"
       style="font-size:24.6944px;line-height:1.25;font-family:Broadsheet;-inkscape-font-specification:Broadsheet;text-align:center;letter-spacing:0px;text-anchor:middle;fill:#d40009;fill-opacity:1;stroke:#000000;stroke-width:1.05833;stroke-linejoin:round;stroke-dasharray:none;stroke-opacity:1;paint-order:stroke fill markers"
       x="119.41132"
       y="23.523775"
       id="text356"><tspan
         sodipodi:role="line"
         id="tspan354"
         style="font-style:normal;font-variant:normal;font-weight:normal;font-stretch:normal;font-size:24.6944px;font-family:Chandler42;-inkscape-font-specification:Chandler42;fill:#d40009;fill-opacity:1;stroke:#000000;stroke-width:1.05833;stroke-linejoin:round;stroke-dasharray:none;stroke-opacity:1;paint-order:stroke fill markers"
         x="119.41132"
         y="23.523775">—“Not guilty.”</tspan></text></g></svg>
